{
    "swagger": "2.0",
    "info": {
        "description": "This documentation is all about the API services with request, response params and description.",
        "version": "1.0.0",
        "title": "E-Commerce App",
        "termsOfService": "",
        "contact": { "email": "sa@sulthanallaudeen.com" },
        "license": { "name": "Apache 2.0", "url": "http://www.apache.org/licenses/LICENSE-2.0.html" }
    },
    "schemes": ["http"],
    "host": "localhost/ecommerceapp2017",
    "basePath": "/",
    "tags": [{
            "name": "connection",
            "description": "Test Connection"
        },
        {
            "name": "users",
            "description": "User API"
        }
    ],
    "paths": {
        "/checkConnection": {
            "get": {
                "summary": "Check Connection",
                "tags": [
                    "connection"
                ],
                "parameters": [],
                "responses": {
                    "200": {
                        "description": "success"
                    },
                    "default": {
                        "description": "an \"unexpected\" error"
                    }
                }
            }
        },
        "/getToken": {
            "get": {
                "summary": "Get CSRF Token",
                "tags": [
                    "connection"
                ],
                "parameters": [],
                "responses": {
                    "200": {
                        "description": "success"
                    },
                    "default": {
                        "description": "an \"unexpected\" error"
                    }
                }
            }
        },
        "/registerUser": {
            "post": {
                "summary": "Register User",
                "tags": [
                    "users"
                ],
                "parameters": [{
                        "name": "_token",
                        "in": "formData",
                        "description": "CSRF Token",
                        "required": true,
                        "type": "string"
                    },
                    {
                        "name": "first_name",
                        "in": "formData",
                        "description": "First Name",
                        "required": true,
                        "type": "string"
                    },
                    {
                        "name": "last_name",
                        "in": "formData",
                        "description": "Last name",
                        "required": true,
                        "type": "string"
                    },
                    {
                        "name": "email",
                        "in": "formData",
                        "description": "Email",
                        "required": true,
                        "type": "string"
                    },
                    {
                        "name": "phone",
                        "in": "formData",
                        "description": "Phone",
                        "required": true,
                        "type": "integer"
                    },
                    {
                        "name": "password",
                        "in": "formData",
                        "description": "Password",
                        "required": true,
                        "type": "string"
                    }
                ],
                "responses": {
                    "200": {
                        "description": "success"
                    },
                    "default": {
                        "description": "an \"unexpected\" error"
                    }
                }
            }
        },
        "/users/verifyOtpRegister": {
            "post": {
                "summary": "Verify OTP Register",
                "tags": [
                    "users"
                ],
                "parameters": [{
                        "name": "_id",
                        "in": "formData",
                        "description": "Id",
                        "required": true,
                        "type": "integer"
                    },
                    {
                        "name": "otp",
                        "in": "formData",
                        "description": "OTP",
                        "required": true,
                        "type": "string"
                    }
                ],
                "responses": {
                    "200": {
                        "description": "success"
                    },
                    "default": {
                        "description": "an \"unexpected\" error"
                    }
                }
            }
        },
        "/users/resendOTP": {
            "post": {
                "summary": "Resend OTP",
                "tags": [
                    "users"
                ],
                "parameters": [{
                    "name": "_id",
                    "in": "formData",
                    "description": "Id",
                    "required": true,
                    "type": "string"
                }],
                "responses": {
                    "200": {
                        "description": "success"
                    },
                    "default": {
                        "description": "an \"unexpected\" error"
                    }
                }
            }
        },
        "/users/loginUser": {
            "post": {
                "summary": "Login User",
                "tags": [
                    "users"
                ],
                "parameters": [{
                        "name": "phone",
                        "in": "formData",
                        "description": "Phone",
                        "required": true,
                        "type": "string"
                    },
                    {
                        "name": "password",
                        "in": "formData",
                        "description": "Password",
                        "required": true,
                        "type": "string"
                    }
                ],
                "responses": {
                    "200": {
                        "description": "success"
                    },
                    "default": {
                        "description": "an \"unexpected\" error"
                    }
                }
            }
        }
    }
}